{"current_page":1,"data":[{"id":32,"user_id":99920342,"htcode":"Y20250429210311903546","yamount":"741852.63","amount":"222555.78","opayment":"0.00","fwamount":"0.30","total":"289322.81","bamount":"0.00","remainamount":"0.00","opaymentlv":"5.00","days":1,"lv_perday":"30.0000","tel":"1133333","name":"h","lixi":"66766.73","review_status":2,"last":"s","address":"fdsfdsfjghjhgjghj","mail":"70269394@qq.com","signature":"sdasd","signatureUrl":"https:\/\/sysm.gpt-web3.cc\/upload\/20250429\/1745931791924031.png","create_time":"2025-04-29 21:03:11","review_time":"2025-04-30 21:05:45","updated_at":"2025-04-29 21:05:45","end_time":null,"status":0},{"id":31,"user_id":99920326,"htcode":"Y20250425230102527517","yamount":"1123.00","amount":"336.90","opayment":"0.00","fwamount":"0.30","total":"438.27","bamount":"0.00","remainamount":"0.00","opaymentlv":"5.00","days":1,"lv_perday":"30.0000","tel":"1","name":"1","lixi":"101.07","review_status":1,"last":"1","address":"1","mail":"1","signature":"1","signatureUrl":"https:\/\/sysm.gpt-web3.cc\/upload\/20250425\/1745593261723446.png","create_time":"2025-04-25 23:01:02","review_time":null,"updated_at":null,"end_time":null,"status":0},{"id":30,"user_id":99643661,"htcode":"Y20250421062627664049","yamount":"700.00","amount":"210.00","opayment":"0.00","fwamount":"0.30","total":"525.30","bamount":"0.00","remainamount":"0.00","opaymentlv":"5.00","days":5,"lv_perday":"30.0000","tel":"123123123213","name":"mick","lixi":"315.00","review_status":1,"last":"jones","address":"4544 Broadway Ave Apt. 12C New York, NY 10034 USA","mail":"2626@gmail.com","signature":"123213","signatureUrl":"https:\/\/sysm.gpt-web3.cc\/upload\/20250421\/1745187986286122.png","create_time":"2025-04-21 06:26:27","review_time":null,"updated_at":null,"end_time":null,"status":0},{"id":29,"user_id":99643661,"htcode":"Y20250421062625023349","yamount":"700.00","amount":"210.00","opayment":"0.00","fwamount":"0.30","total":"525.30","bamount":"0.00","remainamount":"0.00","opaymentlv":"5.00","days":5,"lv_perday":"30.0000","tel":"123123123213","name":"mick","lixi":"315.00","review_status":1,"last":"jones","address":"4544 Broadway Ave Apt. 12C New York, NY 10034 USA","mail":"2626@gmail.com","signature":"123213","signatureUrl":"https:\/\/sysm.gpt-web3.cc\/upload\/20250421\/1745187984598284.png","create_time":"2025-04-21 06:26:25","review_time":null,"updated_at":null,"end_time":null,"status":0},{"id":28,"user_id":12458401,"htcode":"Y20250420161631544926","yamount":"50.00","amount":"15.00","opayment":"0.00","fwamount":"0.30","total":"19.80","bamount":"0.00","remainamount":"0.00","opaymentlv":"5.00","days":1,"lv_perday":"30.0000","tel":"141","name":"1","lixi":"4.50","review_status":1,"last":"1","address":"14","mail":"411","signature":"141","signatureUrl":"https:\/\/sysm.gpt-web3.cc\/upload\/20250420\/1745136991511078.png","create_time":"2025-04-20 16:16:31","review_time":null,"updated_at":null,"end_time":null,"status":0},{"id":27,"user_id":66005883,"htcode":"Y20250416214111824511","yamount":"1136.50","amount":"340.95","opayment":"0.00","fwamount":"0.30","total":"1057.24","bamount":"0.00","remainamount":"0.00","opaymentlv":"5.00","days":7,"lv_perday":"30.0000","tel":"Expired","name":"","lixi":"715.99","review_status":2,"last":"","address":"","mail":null,"signature":null,"signatureUrl":"https:\/\/sysm.gpt-web3.cc\/upload\/btc.png","create_time":"2025-04-16 21:41:11","review_time":"2025-04-24 18:37:39","updated_at":"2025-04-17 18:37:39","end_time":null,"status":0},{"id":26,"user_id":2077,"htcode":"Y20250405150134163147","yamount":"555.00","amount":"166.50","opayment":"0.00","fwamount":"0.30","total":"216.75","bamount":"0.00","remainamount":"0.00","opaymentlv":"5.00","days":1,"lv_perday":"30.0000","tel":"1111","name":"11","lixi":"49.95","review_status":3,"last":"1","address":"1","mail":"11","signature":"41","signatureUrl":"https:\/\/sysm.gpt-web3.cc\/upload\/qm.png","create_time":"2025-04-05 15:01:34","review_time":"2025-04-17 17:36:06","updated_at":"2025-04-17 17:36:06","end_time":null,"status":0},{"id":25,"user_id":2077,"htcode":"Y20250405145649156206","yamount":"666.00","amount":"199.80","opayment":"0.00","fwamount":"0.30","total":"260.04","bamount":"0.00","remainamount":"0.00","opaymentlv":"5.00","days":1,"lv_perday":"30.0000","tel":"111","name":"11","lixi":"59.94","review_status":2,"last":"11","address":"1","mail":"11","signature":"111","signatureUrl":"https:\/\/sysm.gpt-web3.cc\/upload\/qm.png","create_time":"2025-04-05 14:56:49","review_time":"2025-04-05 14:57:17","updated_at":null,"end_time":null,"status":0},{"id":24,"user_id":2077,"htcode":"Y20250404215613579918","yamount":"10.00","amount":"3.00","opayment":"0.00","fwamount":"0.30","total":"4.20","bamount":"0.00","remainamount":"0.00","opaymentlv":"5.00","days":1,"lv_perday":"30.0000","tel":"1","name":"1","lixi":"0.90","review_status":2,"last":"1","address":"1","mail":"1","signature":"52","signatureUrl":"https:\/\/sysm.gpt-web3.cc\/upload\/qm.png","create_time":"2025-04-04 21:56:13","review_time":"2025-04-05 14:57:11","updated_at":null,"end_time":"2025-04-05 22:10:26","status":0},{"id":23,"user_id":2079,"htcode":"Y20250402132930076085","yamount":"20.00","amount":"6.00","opayment":"0.00","fwamount":"0.30","total":"15.30","bamount":"0.00","remainamount":"0.00","opaymentlv":"5.00","days":5,"lv_perday":"30.0000","tel":"1111","name":"11","lixi":"9.00","review_status":2,"last":"1","address":"111","mail":"11","signature":"11111","signatureUrl":"https:\/\/sysm.gpt-web3.cc\/upload\/qm.png","create_time":"2025-04-02 13:29:30","review_time":null,"updated_at":null,"end_time":null,"status":0}],"first_page_url":"https:\/\/sysm.gpt-web3.cc\/admin\/lending\/order_lists?page=1","from":1,"last_page":3,"last_page_url":"https:\/\/sysm.gpt-web3.cc\/admin\/lending\/order_lists?page=3","next_page_url":"https:\/\/sysm.gpt-web3.cc\/admin\/lending\/order_lists?page=2","path":"https:\/\/sysm.gpt-web3.cc\/admin\/lending\/order_lists","per_page":"10","prev_page_url":null,"to":10,"total":22}